[gd_resource type="TileSet" load_steps=2 format=2]

[ext_resource path="res://battle/grid/hex/outline.png" type="Texture" id=1]

[resource]

0/name = "1"
0/texture = ExtResource( 1 )
0/tex_offset = Vector2( 0, 0 )
0/modulate = Color( 1, 1, 1, 1 )
0/region = Rect2( 0, 0, 128, 64 )
0/is_autotile = false
0/occluder_offset = Vector2( 64, 32 )
0/navigation_offset = Vector2( 64, 32 )
0/shapes = [  ]
1/name = "2"
1/texture = ExtResource( 1 )
1/tex_offset = Vector2( 0, 0 )
1/modulate = Color( 1, 1, 1, 1 )
1/region = Rect2( 0, 0, 128, 64 )
1/is_autotile = false
1/occluder_offset = Vector2( 64, 32 )
1/navigation_offset = Vector2( 64, 32 )
1/shapes = [  ]
2/name = "3"
2/texture = ExtResource( 1 )
2/tex_offset = Vector2( 0, 0 )
2/modulate = Color( 1, 1, 1, 1 )
2/region = Rect2( 0, 0, 128, 64 )
2/is_autotile = false
2/occluder_offset = Vector2( 64, 32 )
2/navigation_offset = Vector2( 64, 32 )
2/shapes = [  ]
3/name = "4"
3/texture = ExtResource( 1 )
3/tex_offset = Vector2( 0, 0 )
3/modulate = Color( 1, 1, 1, 1 )
3/region = Rect2( 0, 0, 128, 64 )
3/is_autotile = false
3/occluder_offset = Vector2( 64, 32 )
3/navigation_offset = Vector2( 64, 32 )
3/shapes = [  ]

