[gd_scene load_steps=2 format=2]

[ext_resource path="res://character/weapon_slot.gd" type="Script" id=1]

[node name="WeaponSlot" type="Node"]

script = ExtResource( 1 )
slot_name = ""
allowed_types = null
second_hand = null


