[gd_scene load_steps=3 format=2]

[ext_resource path="res://character/character.tscn" type="PackedScene" id=1]
[ext_resource path="res://character/caveman2/caverman-2.png" type="Texture" id=2]

[node name="Character" index="0" instance=ExtResource( 1 )]

[node name="Sprite" parent="." index="1"]

texture = ExtResource( 2 )

[node name="AnimationPlayer" parent="Sprite" index="0"]

_sections_unfolded = [ "Playback Options" ]


